%YAML 1.1
%TAG !u! tag:unity3d.com,2011:
--- !u!1 &4757019156411913911
GameObject:
  m_ObjectHideFlags: 0
  m_CorrespondingSourceObject: {fileID: 0}
  m_PrefabInstance: {fileID: 0}
  m_PrefabAsset: {fileID: 0}
  serializedVersion: 6
  m_Component:
  - component: {fileID: 4757019156411913544}
  m_Layer: 0
  m_Name: Fire Arrow
  m_TagString: Untagged
  m_Icon: {fileID: 0}
  m_NavMeshLayer: 0
  m_StaticEditorFlags: 0
  m_IsActive: 1
--- !u!4 &4757019156411913544
Transform:
  m_ObjectHideFlags: 0
  m_CorrespondingSourceObject: {fileID: 0}
  m_PrefabInstance: {fileID: 0}
  m_PrefabAsset: {fileID: 0}
  m_GameObject: {fileID: 4757019156411913911}
  m_LocalRotation: {x: 0, y: 0, z: 0, w: 1}
  m_LocalPosition: {x: 5, y: 4.573, z: 14.877}
  m_LocalScale: {x: 1, y: 1, z: 1}
  m_Children:
  - {fileID: 5012201568462350636}
  - {fileID: 4759034313961124582}
  m_Father: {fileID: 0}
  m_RootOrder: 0
  m_LocalEulerAnglesHint: {x: 0, y: 0, z: 0}
--- !u!1001 &4757019156961283783
PrefabInstance:
  m_ObjectHideFlags: 0
  serializedVersion: 2
  m_Modification:
    m_TransformParent: {fileID: 4757019156411913544}
    m_Modifications:
    - target: {fileID: -8679921383154817045, guid: d5df125b0ee721843bb1672371390fbe, type: 3}
      propertyPath: m_RootOrder
      value: 0
      objectReference: {fileID: 0}
    - target: {fileID: -8679921383154817045, guid: d5df125b0ee721843bb1672371390fbe, type: 3}
      propertyPath: m_LocalScale.x
      value: 1.5
      objectReference: {fileID: 0}
    - target: {fileID: -8679921383154817045, guid: d5df125b0ee721843bb1672371390fbe, type: 3}
      propertyPath: m_LocalScale.y
      value: 1.5
      objectReference: {fileID: 0}
    - target: {fileID: -8679921383154817045, guid: d5df125b0ee721843bb1672371390fbe, type: 3}
      propertyPath: m_LocalScale.z
      value: 1.5
      objectReference: {fileID: 0}
    - target: {fileID: -8679921383154817045, guid: d5df125b0ee721843bb1672371390fbe, type: 3}
      propertyPath: m_LocalPosition.x
      value: 0
      objectReference: {fileID: 0}
    - target: {fileID: -8679921383154817045, guid: d5df125b0ee721843bb1672371390fbe, type: 3}
      propertyPath: m_LocalPosition.y
      value: -0.001999855
      objectReference: {fileID: 0}
    - target: {fileID: -8679921383154817045, guid: d5df125b0ee721843bb1672371390fbe, type: 3}
      propertyPath: m_LocalPosition.z
      value: 0.012000084
      objectReference: {fileID: 0}
    - target: {fileID: -8679921383154817045, guid: d5df125b0ee721843bb1672371390fbe, type: 3}
      propertyPath: m_LocalRotation.w
      value: 1
      objectReference: {fileID: 0}
    - target: {fileID: -8679921383154817045, guid: d5df125b0ee721843bb1672371390fbe, type: 3}
      propertyPath: m_LocalRotation.x
      value: -0
      objectReference: {fileID: 0}
    - target: {fileID: -8679921383154817045, guid: d5df125b0ee721843bb1672371390fbe, type: 3}
      propertyPath: m_LocalRotation.y
      value: -0
      objectReference: {fileID: 0}
    - target: {fileID: -8679921383154817045, guid: d5df125b0ee721843bb1672371390fbe, type: 3}
      propertyPath: m_LocalRotation.z
      value: -0
      objectReference: {fileID: 0}
    - target: {fileID: -8679921383154817045, guid: d5df125b0ee721843bb1672371390fbe, type: 3}
      propertyPath: m_LocalEulerAnglesHint.x
      value: 0
      objectReference: {fileID: 0}
    - target: {fileID: -8679921383154817045, guid: d5df125b0ee721843bb1672371390fbe, type: 3}
      propertyPath: m_LocalEulerAnglesHint.y
      value: 0
      objectReference: {fileID: 0}
    - target: {fileID: -8679921383154817045, guid: d5df125b0ee721843bb1672371390fbe, type: 3}
      propertyPath: m_LocalEulerAnglesHint.z
      value: 0
      objectReference: {fileID: 0}
    - target: {fileID: -1041279737980340588, guid: d5df125b0ee721843bb1672371390fbe, type: 3}
      propertyPath: m_Materials.Array.data[0]
      value: 
      objectReference: {fileID: 2100000, guid: bd97d454ecbf20c4f81b80a29842d52c, type: 2}
    - target: {fileID: 919132149155446097, guid: d5df125b0ee721843bb1672371390fbe, type: 3}
      propertyPath: m_Name
      value: Arrow
      objectReference: {fileID: 0}
    - target: {fileID: 5513386478252090863, guid: d5df125b0ee721843bb1672371390fbe, type: 3}
      propertyPath: m_Materials.Array.data[0]
      value: 
      objectReference: {fileID: 2100000, guid: ed341527232986d45ae5f932bfec4d76, type: 2}
    - target: {fileID: 8835409689826365435, guid: d5df125b0ee721843bb1672371390fbe, type: 3}
      propertyPath: m_Materials.Array.data[0]
      value: 
      objectReference: {fileID: 2100000, guid: c3fb41a36c60c6b4fb8a1b5c44b290f7, type: 2}
    m_RemovedComponents: []
  m_SourcePrefab: {fileID: 100100000, guid: d5df125b0ee721843bb1672371390fbe, type: 3}
--- !u!4 &5012201568462350636 stripped
Transform:
  m_CorrespondingSourceObject: {fileID: -8679921383154817045, guid: d5df125b0ee721843bb1672371390fbe, type: 3}
  m_PrefabInstance: {fileID: 4757019156961283783}
  m_PrefabAsset: {fileID: 0}
--- !u!1001 &4757019157308279178
PrefabInstance:
  m_ObjectHideFlags: 0
  serializedVersion: 2
  m_Modification:
    m_TransformParent: {fileID: 4757019156411913544}
    m_Modifications:
    - target: {fileID: 1725317912486240, guid: e55149ba6f4d00741984987e258c3378, type: 3}
      propertyPath: m_Name
      value: Magic fire pro orange
      objectReference: {fileID: 0}
    - target: {fileID: 4274653050354540, guid: e55149ba6f4d00741984987e258c3378, type: 3}
      propertyPath: m_RootOrder
      value: 1
      objectReference: {fileID: 0}
    - target: {fileID: 4274653050354540, guid: e55149ba6f4d00741984987e258c3378, type: 3}
      propertyPath: m_LocalScale.x
      value: 0.3
      objectReference: {fileID: 0}
    - target: {fileID: 4274653050354540, guid: e55149ba6f4d00741984987e258c3378, type: 3}
      propertyPath: m_LocalScale.y
      value: 0.3
      objectReference: {fileID: 0}
    - target: {fileID: 4274653050354540, guid: e55149ba6f4d00741984987e258c3378, type: 3}
      propertyPath: m_LocalScale.z
      value: 0.3
      objectReference: {fileID: 0}
    - target: {fileID: 4274653050354540, guid: e55149ba6f4d00741984987e258c3378, type: 3}
      propertyPath: m_LocalPosition.x
      value: 0
      objectReference: {fileID: 0}
    - target: {fileID: 4274653050354540, guid: e55149ba6f4d00741984987e258c3378, type: 3}
      propertyPath: m_LocalPosition.y
      value: -0.001
      objectReference: {fileID: 0}
    - target: {fileID: 4274653050354540, guid: e55149ba6f4d00741984987e258c3378, type: 3}
      propertyPath: m_LocalPosition.z
      value: 0.467
      objectReference: {fileID: 0}
    - target: {fileID: 4274653050354540, guid: e55149ba6f4d00741984987e258c3378, type: 3}
      propertyPath: m_LocalRotation.w
      value: 0.9312157
      objectReference: {fileID: 0}
    - target: {fileID: 4274653050354540, guid: e55149ba6f4d00741984987e258c3378, type: 3}
      propertyPath: m_LocalRotation.x
      value: -0.36446863
      objectReference: {fileID: 0}
    - target: {fileID: 4274653050354540, guid: e55149ba6f4d00741984987e258c3378, type: 3}
      propertyPath: m_LocalRotation.y
      value: 3.008868e-17
      objectReference: {fileID: 0}
    - target: {fileID: 4274653050354540, guid: e55149ba6f4d00741984987e258c3378, type: 3}
      propertyPath: m_LocalRotation.z
      value: -0.000000043448047
      objectReference: {fileID: 0}
    - target: {fileID: 4274653050354540, guid: e55149ba6f4d00741984987e258c3378, type: 3}
      propertyPath: m_LocalEulerAnglesHint.x
      value: -42.75
      objectReference: {fileID: 0}
    - target: {fileID: 4274653050354540, guid: e55149ba6f4d00741984987e258c3378, type: 3}
      propertyPath: m_LocalEulerAnglesHint.y
      value: 0
      objectReference: {fileID: 0}
    - target: {fileID: 4274653050354540, guid: e55149ba6f4d00741984987e258c3378, type: 3}
      propertyPath: m_LocalEulerAnglesHint.z
      value: 0
      objectReference: {fileID: 0}
    - target: {fileID: 4404365773844742, guid: e55149ba6f4d00741984987e258c3378, type: 3}
      propertyPath: m_LocalScale.x
      value: 0.20095
      objectReference: {fileID: 0}
    - target: {fileID: 4404365773844742, guid: e55149ba6f4d00741984987e258c3378, type: 3}
      propertyPath: m_LocalScale.y
      value: 0.20095
      objectReference: {fileID: 0}
    - target: {fileID: 4404365773844742, guid: e55149ba6f4d00741984987e258c3378, type: 3}
      propertyPath: m_LocalScale.z
      value: 0.20095
      objectReference: {fileID: 0}
    - target: {fileID: 4410241804940320, guid: e55149ba6f4d00741984987e258c3378, type: 3}
      propertyPath: m_LocalScale.x
      value: 0.26851
      objectReference: {fileID: 0}
    - target: {fileID: 4410241804940320, guid: e55149ba6f4d00741984987e258c3378, type: 3}
      propertyPath: m_LocalScale.y
      value: 0.26851
      objectReference: {fileID: 0}
    - target: {fileID: 4410241804940320, guid: e55149ba6f4d00741984987e258c3378, type: 3}
      propertyPath: m_LocalScale.z
      value: 0.26851
      objectReference: {fileID: 0}
    - target: {fileID: 4857446216290978, guid: e55149ba6f4d00741984987e258c3378, type: 3}
      propertyPath: m_LocalScale.x
      value: 0.24149
      objectReference: {fileID: 0}
    - target: {fileID: 4857446216290978, guid: e55149ba6f4d00741984987e258c3378, type: 3}
      propertyPath: m_LocalScale.y
      value: 0.24149
      objectReference: {fileID: 0}
    - target: {fileID: 4857446216290978, guid: e55149ba6f4d00741984987e258c3378, type: 3}
      propertyPath: m_LocalScale.z
      value: 0.24149
      objectReference: {fileID: 0}
    - target: {fileID: 4927245751746350, guid: e55149ba6f4d00741984987e258c3378, type: 3}
      propertyPath: m_LocalScale.x
      value: 0.16468
      objectReference: {fileID: 0}
    - target: {fileID: 4927245751746350, guid: e55149ba6f4d00741984987e258c3378, type: 3}
      propertyPath: m_LocalScale.y
      value: 0.16468
      objectReference: {fileID: 0}
    - target: {fileID: 4927245751746350, guid: e55149ba6f4d00741984987e258c3378, type: 3}
      propertyPath: m_LocalScale.z
      value: 0.16468
      objectReference: {fileID: 0}
    - target: {fileID: 198533276141313876, guid: e55149ba6f4d00741984987e258c3378, type: 3}
      propertyPath: lengthInSec
      value: 0.05
      objectReference: {fileID: 0}
    - target: {fileID: 199173897474711878, guid: e55149ba6f4d00741984987e258c3378, type: 3}
      propertyPath: m_Materials.Array.size
      value: 1
      objectReference: {fileID: 0}
    - target: {fileID: 199176809758892682, guid: e55149ba6f4d00741984987e258c3378, type: 3}
      propertyPath: m_Materials.Array.size
      value: 1
      objectReference: {fileID: 0}
    - target: {fileID: 199218580650235198, guid: e55149ba6f4d00741984987e258c3378, type: 3}
      propertyPath: m_Materials.Array.size
      value: 1
      objectReference: {fileID: 0}
    - target: {fileID: 199338329820519516, guid: e55149ba6f4d00741984987e258c3378, type: 3}
      propertyPath: m_Materials.Array.size
      value: 1
      objectReference: {fileID: 0}
    - target: {fileID: 199526426274550578, guid: e55149ba6f4d00741984987e258c3378, type: 3}
      propertyPath: m_Materials.Array.size
      value: 1
      objectReference: {fileID: 0}
    m_RemovedComponents: []
  m_SourcePrefab: {fileID: 100100000, guid: e55149ba6f4d00741984987e258c3378, type: 3}
--- !u!4 &4759034313961124582 stripped
Transform:
  m_CorrespondingSourceObject: {fileID: 4274653050354540, guid: e55149ba6f4d00741984987e258c3378, type: 3}
  m_PrefabInstance: {fileID: 4757019157308279178}
  m_PrefabAsset: {fileID: 0}
